<?xml version="1.0" encoding="utf-8"?>
<!-- Generator: Adobe Illustrator 18.1.1, SVG Export Plug-In . SVG Version: 6.00 Build 0)  -->
<!DOCTYPE svg PUBLIC "-//W3C//DTD SVG 1.1//EN" "http://www.w3.org/Graphics/SVG/1.1/DTD/svg11.dtd">
<svg version="1.1" id="Layer_1" xmlns="http://www.w3.org/2000/svg" xmlns:xlink="http://www.w3.org/1999/xlink" x="0px" y="0px"
	 viewBox="0 16 32 32" enable-background="new 0 16 32 32" xml:space="preserve">
<rect y="16" fill="#598527" width="32" height="32"/>
<g>
	<path fill="#FFFFFF" d="M7,41.5V37h1.4l0.8,3.1L10,37h1.4v4.6h-0.9V38l-0.9,3.6H8.8L8,37.9v3.6C7.9,41.5,7,41.5,7,41.5z"/>
	<path fill="#FFFFFF" d="M12.4,41.5V37h3.4v0.8h-2.5v1h2.3v0.8h-2.3v1.3h2.6v0.8h-3.4v-0.2H12.4z"/>
	<path fill="#FFFFFF" d="M16.7,41.5V37h0.9l1.8,3v-3h0.9v4.6h-1l-1.8-3v3C17.5,41.5,16.7,41.5,16.7,41.5z"/>
	<path fill="#FFFFFF" d="M21.3,37h1v2.5c0,0.4,0,0.6,0,0.8s0.2,0.3,0.3,0.5c0.2,0.2,0.3,0.2,0.6,0.2c0.2,0,0.5-0.1,0.6-0.2
		c0.1-0.1,0.2-0.2,0.2-0.4s0.1-0.4,0.1-0.8V37h1v2.4c0,0.6,0,1-0.1,1.2s-0.2,0.4-0.2,0.6s-0.3,0.3-0.6,0.4s-0.6,0.1-1,0.1
		s-0.8-0.1-1-0.2c-0.2-0.1-0.4-0.2-0.6-0.4s-0.2-0.3-0.2-0.5c-0.1-0.2-0.1-0.6-0.1-1.2L21.3,37L21.3,37z"/>
</g>
<g>
	<rect x="14.4" y="23.2" fill="#FFFFFF" width="8" height="2.4"/>
	<rect x="9.6" y="23.2" fill="#FFFFFF" width="2.4" height="2.4"/>
	<rect x="9.6" y="27.2" fill="#FFFFFF" width="2.4" height="2.4"/>
	<rect x="14.4" y="27.2" fill="#FFFFFF" width="8" height="2.4"/>
	<rect x="14.4" y="31.2" fill="#FFFFFF" width="8" height="2.4"/>
	<rect x="9.6" y="31.2" fill="#FFFFFF" width="2.4" height="2.4"/>
</g>
</svg>
